Dynamics: Bifurcation,master,unfinished,300000,-1,-1,-1,-1
Dynamics: Cascaded,master,proved,300000,6718,2732,3521,1
Dynamics: Closed cases,master,proved,300000,1744,490,422,1
Dynamics: Conserved quantity,master,proved,300000,3598,1581,541,1
Dynamics: Darboux equality,master,proved,300000,4537,1734,1361,1
Dynamics: Darboux inequality,master,proved,300000,3903,1454,1261,1
Dynamics: Double integrator,master,proved,300000,7375,2984,2847,1
Dynamics: Exponential decay (1),master,proved,300000,3072,1371,982,1
Dynamics: Exponential decay (2),master,proved,300000,3130,1410,982,1
Dynamics: Exponential decay (3),master,proved,300000,3491,1669,1135,1
Dynamics: Exponential growth (1),master,proved,300000,2952,1144,1022,1
Dynamics: Exponential growth (2),master,proved,300000,5836,1956,1440,1
Dynamics: Exponential growth (4),master,proved,300000,1531,600,276,1
Dynamics: Exponential growth (5),master,proved,300000,4008,1719,1097,1
Dynamics: Fractional Darboux equality,master,unfinished,300000,-1,-1,-1,-1
Dynamics: Nonlinear 1,master,proved,300000,3931,1705,1147,1
Dynamics: Nonlinear 2,master,proved,300000,1932,569,412,1
Dynamics: Nonlinear 4,master,proved,300000,2428,937,448,1
Dynamics: Nonlinear 5,master,proved,300000,1881,526,385,1
Dynamics: Nonlinear differential cut,master,proved,300000,5113,1916,1500,1
Dynamics: Open cases,master,proved,300000,6958,3563,2216,1
Dynamics: Parametric switching between two different damped oscillators,master,timeout,300000,-1,-1,-1,-1
Dynamics: Riccati,master,proved,300000,2225,588,348,1
Dynamics: Rotational dynamics (1),master,proved,300000,1868,585,380,1
Dynamics: Rotational dynamics (2),master,proved,300000,4925,1887,834,1
Dynamics: Rotational dynamics (3),master,proved,300000,4352,1608,1310,1
Dynamics: Single integrator,master,proved,300000,1480,482,357,1
Dynamics: Single integrator time,master,proved,300000,1352,402,284,1
Dynamics: Spiral to equilibrium,master,proved,300000,2567,957,526,1
Dynamics: Triple integrator,master,proved,300000,12027,3439,2503,1
LICS: Example 1 Continuous car accelerates forward,master,proved,300000,625,36,70,1
LICS: Example 2 Single car drives forward,master,proved,300000,1610,584,289,1
LICS: Example 3a event-triggered car drives forward,master,proved,300000,1628,567,268,1
LICS: Example 4a safe stopping of time-triggered car,master,proved,300000,25732,12053,6974,1
LICS: Example 4b progress of time-triggered car,master,unfinished,300000,-1,-1,-1,-1
LICS: Example 4c relative safety of time-triggered car,master,proved,300000,43552,21406,15874,1
LICS: Example 5 Controllability Equivalence,master,proved,300000,12427,5463,5545,1
LICS: Example 6 MPC Acceleration Equivalence,master,unfinished,300000,-1,-1,-1,-1
LICS: Example 7 Model-Predictive Control Design Car,master,timeout,300000,-1,-1,-1,-1
STTT Tutorial: Example 1,master,proved,300000,1649,537,370,1
STTT Tutorial: Example 10,master,timeout,300000,-1,-1,-1,-1
STTT Tutorial: Example 2,master,proved,300000,1963,806,406,1
STTT Tutorial: Example 3a,master,timeout,300000,-1,-1,-1,-1
STTT Tutorial: Example 4a,master,proved,300000,1622,554,274,1
STTT Tutorial: Example 4b,master,proved,300000,1118,319,151,1
STTT Tutorial: Example 4c,master,proved,300000,14836,7122,3774,1
STTT Tutorial: Example 5,master,proved,300000,47847,26076,13102,1
STTT Tutorial: Example 6,master,proved,300000,56062,30542,13561,1
STTT Tutorial: Example 7,master,proved,300000,62289,34756,14472,1
STTT Tutorial: Example 9a,master,proved,300000,8090,4790,1655,1
STTT Tutorial: Example 9b,master,timeout,300000,-1,-1,-1,-1
Static semantics correctness: Assignment 1,master,proved,300000,362,213,37,1
Static semantics correctness: Assignment 2,master,proved,300000,652,212,113,1
Static semantics correctness: Assignment 3,master,proved,300000,849,255,152,1
Static semantics correctness: Assignment 4,master,proved,300000,1402,419,318,1
Static semantics correctness: Assignment 5,master,proved,300000,231,0,28,1
Static semantics correctness: Assignment 6,master,proved,300000,939,465,142,1
Static semantics correctness: Assignment 7,master,unfinished,300000,-1,-1,-1,-1
Static semantics correctness: Assignment 8,master,proved,300000,4247,1466,1823,1
Static semantics correctness: Assignment 9,master,unfinished,300000,-1,-1,-1,-1
1D Saddle Node,master,unfinished,300000,-1,-1,-1,-1
Ahmadi Parrilo Krstic,master,proved,300000,5680,2418,1176,1
Alongi Nelson Ex_4_1_9 page 143,master,unfinished,300000,-1,-1,-1,-1
Arrowsmith Place Fig_1_29 page 14,master,proved,300000,3646,1185,1104,1
Arrowsmith Place Fig_1_30 page 14,master,proved,300000,1759,409,332,1
Arrowsmith Place Fig_1_31 page 14,master,proved,300000,6279,3036,2186,1
Arrowsmith Place Fig_1_32 page 14,master,proved,300000,6140,2971,2194,1
Arrowsmith Place Fig_1_35 page 17,master,proved,300000,7447,3815,2248,1
Arrowsmith Place Fig_3_11 page 83,master,proved,300000,7019,2438,1400,1
Arrowsmith Place Fig_3_1 page 72,master,proved,300000,5957,2318,1342,1
Arrowsmith Place Fig_3_5c page 79,master,proved,300000,2917,917,508,1
Arrowsmith Place Fig_3_5e page 79,master,unfinished,300000,-1,-1,-1,-1
Arrowsmith Place Fig_3_8 page 82,master,proved,300000,6573,2543,2325,1
Arrowsmith Place Fig_3_9 page 83,master,proved,300000,6569,2676,2325,1
Ben Sassi Girard 20104 Moore-Greitzer Jet,master,unfinished,300000,-1,-1,-1,-1
Ben Sassi Girard Sankaranarayanan 2014 Fitzhugh-Nagumo,master,unfinished,300000,-1,-1,-1,-1
Bhatia Szego Ex_2_4 page 68,master,unfinished,300000,-1,-1,-1,-1
Collin Goriely page 60,master,unfinished,300000,-1,-1,-1,-1
Dai Gan Xia Zhan JSC14 Ex. 1,master,proved,300000,5235,2306,1243,1
Dai Gan Xia Zhan JSC14 Ex. 2,master,unfinished,300000,-1,-1,-1,-1
Dai Gan Xia Zhan JSC14 Ex. 5,master,unfinished,300000,-1,-1,-1,-1
Darboux Christoffel Int Goriely page 58,master,unfinished,300000,-1,-1,-1,-1
Djaballah Chapoutot Kieffer Bouissou 2015 Ex. 1,master,unfinished,300000,-1,-1,-1,-1
Dumortier Llibre Artes Ex. 10_11,master,proved,300000,22214,10327,2430,1
Dumortier Llibre Artes Ex. 10_11b,master,proved,300000,15909,7463,1475,1
Dumortier Llibre Artes Ex. 10_15_i,master,proved,300000,42933,15113,2529,1
Dumortier Llibre Artes Ex. 10_15_ii,master,unfinished,300000,-1,-1,-1,-1
Dumortier Llibre Artes Ex. 10_9,master,proved,300000,12700,5416,1240,1
Dumortier Llibre Artes Ex. 1_11a,master,proved,300000,16801,7579,2507,1
Dumortier Llibre Artes Ex. 1_11b,master,proved,300000,3389,1117,520,1
Dumortier Llibre Artes Ex. 1_9a,master,proved,300000,15222,7930,2293,1
Dumortier Llibre Artes Ex. 1_9b,master,proved,300000,4107,1379,525,1
Dumortier Llibre Artes Ex. 5_13,master,proved,300000,4037,1380,1144,1
Dumortier Llibre Artes Ex. 5_1_ii,master,proved,300000,4716,1664,1320,1
Dumortier Llibre Artes Ex. 5_2,master,unfinished,300000,-1,-1,-1,-1
Dumortier Llibre Artes Ex. 5_2_ii,master,proved,300000,14397,7579,2451,1
Fitzhugh Nagumo Ben Sassi Girard 2,master,unfinished,300000,-1,-1,-1,-1
Forsman Phd Ex 6_14 page 119,master,proved,300000,8347,3394,1240,1
Forsman Phd Ex 6_1 page 99,master,unfinished,300000,-1,-1,-1,-1
Hamiltonian System 1,master,unfinished,300000,-1,-1,-1,-1
Invariant 3-dim sphere,master,unfinished,300000,-1,-1,-1,-1
KeYmaera Nonlinear 1,master,proved,300000,4653,1705,1214,1
KeYmaera Nonlinear Diffcut,master,proved,300000,4830,1756,1639,1
Liu Zhan Zhao Emsoft11 Example 25,master,unfinished,300000,-1,-1,-1,-1
Locally stable nonlinear system,master,unfinished,300000,-1,-1,-1,-1
Lotka Volterra Fourth Quadrant,master,proved,300000,691,49,57,1
MIT astronautics Lyapunov,master,unfinished,300000,-1,-1,-1,-1
Man Maccallum Goriely Page 57,master,proved,300000,7306,2573,1262,1
Prajna PhD Thesis 2-4-1 Page 31,master,proved,300000,8010,3257,1235,1
Shimizu Morioka System,master,proved,300000,4540,1375,1132,1
Stable Limit Cycle 1,master,proved,300000,7816,3807,2218,1
Stable Limit Cycle 2,master,unfinished,300000,-1,-1,-1,-1
Strogatz Example 6_3_2,master,proved,300000,10758,5177,1200,1
Strogatz Example 6_8_3,master,proved,300000,8038,3196,1240,1
Strogatz Exercise 6_1_5,master,unfinished,300000,-1,-1,-1,-1
Strogatz Exercise 6_1_9 Dipole,master,proved,300000,7768,3093,1232,1
Strogatz Exercise 6_6_1 Reversible System,master,proved,300000,18820,7479,2430,1
Strogatz Exercise 6_6_2 Limit Cycle,master,unfinished,300000,-1,-1,-1,-1
Strogatz Exercise 7_3_5,master,unfinished,300000,-1,-1,-1,-1
Synthetic Example 1,master,proved,300000,1853,435,332,1
Unstable Unit Circle 1,master,proved,300000,5258,1903,1324,1
Unstable Unit Circle 2,master,proved,300000,9705,3797,1498,1
Unstable Unit Circle 3,master,proved,300000,5618,2272,1372,1
Van der Pol Fourth Quadrant,master,unfinished,300000,-1,-1,-1,-1
Vinograd System Chicone 1_145 Page 80,master,proved,300000,7238,2775,2240,1
Wien bridge oscillator,master,unfinished,300000,-1,-1,-1,-1
Wiggins Example 17_1_2,master,proved,300000,8974,3825,1250,1
Wiggins Example 18_1_2,master,proved,300000,3904,1610,1060,1
Wiggins Example 18_7_3_n,master,unfinished,300000,-1,-1,-1,-1
ATC: 2 Aircraft Tangential Roundabout Maneuver,master,proved,1500000,39725,11292,3312,1
ATC: 3 Aircraft Tangential Roundabout Maneuver,master,proved,1500000,208472,43591,6863,1
ATC: 4 Aircraft Tangential Roundabout Maneuver,master,proved,1500000,937829,130242,11669,1
ETCS: Essentials,master,proved,1500000,29667,14097,7116,1
ETCS: Proposition 1 (Controllability),master,proved,1500000,16134,8085,6546,1
ETCS: Proposition 4 (Reactivity),master,proved,1500000,43830,25431,13137,1
Robot collision avoidance in two-dimensional space: Passive safety,master,timeout,1500000,-1,-1,-1,-1
Robot collision avoidance in two-dimensional space: Static safety,master,unfinished,1500000,-1,-1,-1,-1
